^C:\USERS\SHAGU\SOURCE\REPOS\16.5\16.5.CPP
C:\USERS\SHAGU\SOURCE\REPOS\16.5\X64\DEBUG\VC143.PDB
C:\USERS\SHAGU\SOURCE\REPOS\16.5\X64\DEBUG\VC143.IDB
C:\USERS\SHAGU\SOURCE\REPOS\16.5\X64\DEBUG\16.5.OBJ
