^C:\USERS\SHAGU\SOURCE\REPOS\16.5\X64\DEBUG\16.5.OBJ
C:\USERS\SHAGU\SOURCE\REPOS\16.5\X64\DEBUG\16.5.EXE
C:\USERS\SHAGU\SOURCE\REPOS\16.5\X64\DEBUG\16.5.ILK
C:\USERS\SHAGU\SOURCE\REPOS\16.5\X64\DEBUG\16.5.PDB
